{
  "productRoutes": [
    {
      "url": "http://localhost:4000/products/all",
      "method": "get"
    },
    {
      "url": "http://localhost:4000/products/active",
      "method": "get"
    },
    {
      "url": "http://localhost:4000/products/",
      "method": "post"
    },
    {
      "url": "http://localhost:4000/products/:productId",
      "method": "get"
    },
    {
      "url": "http://localhost:4000/products/:productId",
      "method": "put"
    },
    {
      "url": "http://localhost:4000/products/:productId/archive",
      "method": "put"
    },
    {
      "url": "http://localhost:4000/products/:productId/activate",
      "method": "put"
    }
  ],
  "userRoutes": [
    {
      "url": "http://localhost:4000/users/register",
      "method": "post"
    },
    {
      "url": "http://localhost:4000/users/login",
      "method": "post"
    },
    {
      "url": "http://localhost:4000/users/:userId/setAsAdmin",
      "method": "put"
    },
    {
      "url": "http://localhost:4000/users/checkout",
      "method": "post"
    },
    {
      "url": "http://localhost:4000/users/myOrders",
      "method": "get"
    },
    {
      "url": "http://localhost:4000/users/orders",
      "method": "get"
    },
    {
      "url": "http://localhost:4000/users/details",
      "method": "get"
    }
  ]
}